Analysis of BSL corpus negations
…
## [1] '0.5'

Load helper functions, which makes percentage() and a ggtheme available.

source('negation_helper_functions.R')

Load data:

neg <- read_csv('../data/BSL_negation_12_June_2020.csv')

Show first few rows and all columns:

neg %>% print(n = 2, width = Inf)

## # A tibble: 504 x 20
##   `ClauseLikeUnit(CLU)-value` Negation       `CLUcomposite-value`
##   <chr>                       <chr>          <chr>               
## 1 BL03F70WHC_LH_CLU#016       Negated clause Single              
## 2 BL03F70WHC_LH_CLU#032       Negated clause Single              
##   `CLUwithinCLU-value` `CLUcomplex-value` `LitTransl-value`
##   <chr>                <chr>              <chr>            
## 1 <NA>                 <NA>               me not understand
## 2 <NA>                 <NA>               me not-understand
##   `FreeTransl-value`                                                            
##   <chr>                                                                         
## 1 There were children signing out there and I couldn't understand any of them.  
## 2 As I got indoors, my Mother waved and cried bye bye, but I did not know where
##   Duration `N-function-value` `N-manual-value` `N-nonmanual-value`
##      <dbl> <chr>              <chr>            <chr>              
## 1     1190 Neg/reprise        Multiple         Present            
## 2     1140 Neg/declarative    Single           Present            
##   `N-position-value` `HeadNegationStudy-value` `CA-value`
##   <chr>              <chr>                     <chr>     
## 1 other              HS                        <NA>      
## 2 other              HS                        <NA>      
##   `MouthGestF-value`        `Mouthing-value` `MouthingNegation-value`
##   <chr>                     <chr>            <chr>                   
## 1 SYLL:POOH, SYLL:POOH-prog me               Absent                  
## 2 SYLL:POOH                 bye-prog         Absent                  
##   `RH-IDgloss-value`      `LH-IDgloss-value`                
##   <chr>                   <chr>                             
## 1 CAN-NOT, NOT-UNDERSTAND PT:PRO1SG, CAN-NOT, NOT-UNDERSTAND
## 2 NOT-UNDERSTAND          PT:PRO1SG, NOT-UNDERSTAND         
##   `Comments-value`                                                              
##   <chr>                                                                         
## 1 "AS What macro-role for a modal verb? GH: include as PROCESS for now, finer d
## 2 "GH: Agree NP, mouthing ambiguous here. Agree bye-prog but then it could be s
## #  with 502 more rows
…
# Save:

ggsave('../figures/mouthing_negation.pdf', mouthing_p, width = 6.5, height = 5)
ggsave('../figures/mouthing_negation.png', mouthing_p, width = 6.5, height = 5)

What types of mouthings are they? (check glosses)

neg %>%
  filter(!is.na(Mouthing_value)) %>% 
  count(Mouthing_value, sort = TRUE) %>%
  mutate(Perc = percentage(n)) %>% 
  print(n = 20)

## # A tibble: 249 x 3
##    Mouthing_value                n Perc 
##    <chr>                     <int> <chr>
##  1 don't know                    8 3%   
##  2 can't                         5 2%   
##  3 nothing                       5 2%   
##  4 no                            4 1%   
##  5 me                            3 1%   
##  6 never, heard                  3 1%   
##  7 but                           2 1%   
##  8 can't afford                  2 1%   
##  9 don't                         2 1%   
## 10 i don't know                  2 1%   
## 11 money                         2 1%   
## 12 no money                      2 1%   
## 13 not yet                       2 1%   
## 14 not, no                       2 1%   
## 15 pub                           2 1%   
## 16 (be)fore, olympics            1 0%   
## 17 (diffi)cult, age, or          1 0%   
## 18 (y)ou, going, out tonight     1 0%   
## 19 abroad, abroad-prog           1 0%   
## 20 and, me, who                  1 0%   
## #  with 229 more rows
…
